Loading pages (1/6)
[>                                                           ] 0%[======>                                                     ] 10%[===================>                                        ] 33%[===========================>                                ] 46%[====================================>                       ] 60%[===========================================>                ] 72%[============================================================] 100%Counting pages (2/6)                                               
[============================================================] Object 1 of 1Resolving links (4/6)                                                       
[============================================================] Object 1 of 1Loading headers and footers (5/6)                                           
Printing pages (6/6)
[>                                                           ] Preparing[========>                                                   ] Page 1 of 7[================>                                           ] Page 2 of 7[=========================>                                  ] Page 3 of 7[==================================>                         ] Page 4 of 7[==========================================>                 ] Page 5 of 7[===================================================>        ] Page 6 of 7[============================================================] Page 7 of 7Done                                                                      
